$185
Toyota Crown majesta luxury,3.0
Model 2001 
Jelly tail light,
062 pearl white colour,
6E-**** mdy
Aircorn auto swing.round and Dual aircorn,
Leather seat with seat motor,
Sunroof 
Original Tv.DVD.back camera
2 seat motor and side mirrors heating system
???????/????Logo ???????, ????????????Jelly ??? // 
?????????Logo ????
All Auto Power Windows 
???????? Motor ,
Multi Display (?????????? ????? ) ,????????? Motor 
HUD ????????????(???????????????????Kilo?????),????????? Vol Control ,Cruise Control ,
Fully VIP
S.grade luxury ?????????,Plug????,????????????,????????
Original 16"alloy and tyre ????,
BBS 19"alloy ???? ???? ????? ???? and 90% japan tyre
Modified ???? ??????,Modified ???????? and original ????????,
????/??????????? ,???????????????? ,
????????/????????????????????????????
?????????????????????????????(?????)????
???????????? ???? ??
????????????Junction Produce. DAD???? V.I.P???????????
????????????????????? ??????????????????
? ???????????? ?????????????????????? ??????????

Price = 179????? ??????

Serious Buyer Only

??????? = Suzuki Swift Only

???????????????????????? >>>> 09 2034926

Location -MDY