Honda insight hybrid...2011
Ks195
????????????????...?????????????..

Honda insight hybrid...2011..model..

???????????????...

??????????..??????????...

???????...????????????...

????????????....???????????....

?????????....195..??????..

Ph..25 3030 949...