Honda Insight 2009
$164 Now $158
??????????? - ??????? - Pyin Oo Lwin
???????? - MDY
?????? - 6L/xxxx
??????? - 5/2020
Grade - G
Kilo - 113xxx
Steering Volume ???????? Back Camera? IMA Error ????? ???????????????? ??????????????????????? ??????????? Black Box Camera (??????????)? Player (Bluetooth? DVD? SD? USB)?? ????? ???????? ????????????? Dash Board ????? ????????????????? ?????????????? ??????????????? (???)?????? ???????????????????? ??????????? ?????????????? ????????????? 09455732407 ??????????????????????